{
    "version": "2.0.0",
    "echoCommand": true,
    "tasks": [
        {
            "label": "make Prozac QuakeC Mod",
            "detail": "Compiles the Prozac CustomTF quakeC mod",
            "command": "./fteqcc.bin",
            "type": "process",
            "args": [
                {
                    "value": "-srcfile",
                    "quoting": "strong"
                },
                {
                    "value": "FTEPROGS.SRC",
                    "quoting": "strong"
                },
                {
                    "value": "-Fhashonly",
                    "quoting": "strong"
                },
                {
                    "value": "-haltonfirst",
                    "quoting": "strong"
                }
            ],
            "presentation": {
                "reveal": "always",
                "revealProblems": "onProblem",
                "panel": "shared"
            },
            "problemMatcher": {
                "owner": "c",
                "fileLocation": [
                    "relative",
                    "${workspaceFolder}"
                ],
                "pattern": {
                    "regexp": "^(.*):(\\d+):\\s+(warning|error):\\s+(.*)$",
                    "file": 1,
                    "line": 2,
                    "severity": 3,
                    "message": 4
                }
            }
        },
        {
            "label": "copy MOD to server folder",
            "command": "cp",
            "detail": "Copies the final Progs DAT Mod to the Applications server dir",
            "type": "shell",
            "args": [
                {
                    "value": "${workspaceFolder}/progs.dat",
                    "quoting": "strong"
                },
                {
                    "value": "/home/sergi/Applications/QuakeSV/fortress/fteprogs.dat",
                    "quoting": "strong"
                }
            ],
            "presentation": {
                "reveal": "always",
                "revealProblems": "onProblem",
                "panel": "shared"
            },
            "problemMatcher": []
        },
        {
            "label": "Rebuild All process and copy result",
            "detail": "Perform the whole quakec Mod rebuild and copy of the result (sequential)",
            "dependsOn": [
                "make Prozac QuakeC Mod",
                "copy MOD to server folder"
            ],
            "problemMatcher": [],
            "dependsOrder": "sequence",
            "group": {
                "kind": "build",
                "isDefault": true
            }
        },
        {
            "label": "(CP) Preprocess Prozac QuakeC Mod",
            "detail": "Preprocesses the Prozac CustomTF quakeC mod using CPPreQcc",
            "command": "./cppreqcc.bin",
            "type": "process",
            "presentation": {
                "reveal": "always",
                "revealProblems": "onProblem",
                "panel": "shared"
            },
            "problemMatcher": {
                "owner": "c",
                "fileLocation": [
                    "relative",
                    "${workspaceFolder}"
                ],
                "pattern": {
                    //"regexp": "^(.*):(\\d+):\\s+(WARNING!|ERROR!):\\s+(.*)$",
                    "regexp": "(.+.[q|Q][c|C])p?:([0-9]+):(INFO |WARNING|ERROR)! (.*)",
                    "file": 1,
                    "line": 2,
                    "severity": 3,
                    "message": 4
                }
            }
        },
        {
            "label": "(CP) make Prozac QuakeC Mod",
            "detail": "Compiles the Prozac CustomTF quakeC mod using CPQccx",
            "command": "./cpqccx.bin",
            "type": "process",
            "args": [
                {
                    "value": "/O2",
                    "quoting": "strong"
                },
                {
                    "value": "/w",
                    "quoting": "strong"
                }
            ],
            "presentation": {
                "reveal": "always",
                "revealProblems": "onProblem",
                "panel": "shared"
            },
            "problemMatcher": {
                "owner": "c",
                "fileLocation": [
                    "relative",
                    "${workspaceFolder}"
                ],
                "pattern": {
                    //"regexp": "^(.*):(\\d+):\\s+(warning|error):\\s+(.*)$",
                    "regexp": "(.+.[q|Q][c|C])p?:([0-9]+):(WARNING|ERROR)! (.*)",
                    //"regexp": "(.*)p?:([0-9]+):(WARNING|ERROR)! (.*)",
                    "file": 1,
                    "line": 2,
                    "severity": 3,
                    "message": 4
                }
            }
        },
        {
            "label": "(CP) copy MOD to server folder",
            "command": "cp",
            "detail": "Copies the final Progs DAT Mod to the Applications server dir",
            "type": "shell",
            "args": [
                {
                    "value": "${workspaceFolder}/../qwprozac.dat",
                    "quoting": "strong"
                },
                {
                    "value": "/home/sergi/Applications/QuakeSV/fortress/qwprozac.dat",
                    "quoting": "strong"
                }
            ],
            "presentation": {
                "reveal": "always",
                "revealProblems": "onProblem",
                "panel": "shared"
            },
            "problemMatcher": []
        },
        {
            "label": "(CP) Remove preprocessor stuff",
            "command": "./clean.sh",
            "detail": "Removes intermediate preprocessor files generated by cppreqcc",
            "type": "shell",
            "presentation": {
                "reveal": "always",
                "revealProblems": "onProblem",
                "panel": "shared"
            },
            "problemMatcher": []
        },
        {
            "label": "(CP) Rebuild All process and copy result",
            "detail": "Perform the whole quakec Mod rebuild and copy of the result (sequential)",
            "dependsOn": [
                "(CP) Preprocess Prozac QuakeC Mod",
                "(CP) make Prozac QuakeC Mod",
                "(CP) copy MOD to server folder",
                "(CP) Remove preprocessor stuff"
            ],
            "problemMatcher": [],
            "dependsOrder": "sequence"
            
        }
    ]
}