{
    "version": "2.0.0",
    "echoCommand": true,
    "tasks": [
        {
            "label": "make clean",
            "detail": "Does clean-up of the binary output files to be able to rebuild from scratch",
            "command": "make",
            "type": "process",            
            "args": [
                "clean"
            ],
            "presentation": {
                "reveal": "always",
                "revealProblems": "onProblem",
                "panel": "shared"
            },
            "problemMatcher": []
        },
        {
            "label": "make glx_release",
            "detail": "Compiles the ProzacQW OpenGL (glx) client",
            "command": "make",
            "type": "process",
            "args": [
                "glx_release"
            ],
            "presentation": {
                "reveal": "always",
                "revealProblems": "onProblem",
                "panel": "shared"
            },
            "problemMatcher": {
                "owner": "c",
                "fileLocation": [
                    "relative",
                    "${workspaceFolder}"
                ],
                "pattern": {
                    "regexp": "^(.*):(\\d+):(\\d+):\\s+(warning|error):\\s+(.*)$",
                    "file": 1,
                    "line": 2,
                    "column": 3,
                    "severity": 4,
                    "message": 5
                }
            }
        },
        {
            "label": "copy to applications folder",
            "command": "cp",
            "detail": "Copies the final executable to the Applications dir",
            "type": "shell",
            "args": [
                {
                    "value": "${workspaceFolder}/release-i386-glibc/prozacqw.glx",
                    "quoting": "strong"
                },
                {
                    "value": "/home/sergi/Applications/ProzacQW/prozacqw.glx",
                    "quoting": "strong"
                }
            ],
            "presentation": {
                "reveal": "always",
                "revealProblems": "onProblem",
                "panel": "shared"
            },
            "problemMatcher": []
        },
        {
            "label": "Rebuild All process and copy result",
            "detail": "Perform the whole clean/rebuild and copy of the result (sequential)",
            "dependsOn": [
                "make clean",
                "make glx_release",
                "copy to applications folder"
            ],
            "problemMatcher": [],
            "dependsOrder": "sequence",
            "group": {
                "kind": "build",
                "isDefault": true
            }
        }
    ]
}